The Big Page
…
Create summary tibble

annual.mpg <- vehicles %>% sample_frac(0.5) %>% 
  filter(cyl %in% 4:8) %>% group_by(year) %>%  
  summarize(hwy.avg = mean(hwy), hwy.sd = sd(hwy),
            city.avg = mean(cty), city.sd = sd(cty)) %>% 
  arrange(desc(city.avg))

Note: Here I used %in%, which works like inrange in Stata. You could alternately write two inequalities to achieve the same thing.

# Print annual.mpg
annual.mpg

## # A tibble: 32 x 5
##     year hwy.avg hwy.sd city.avg city.sd
##    <int>   <dbl>  <dbl>    <dbl>   <dbl>
##  1  2015    28.6   5.42     20.6    4.78
##  2  2014    27.8   6.44     20.4    5.76
##  3  2013    27.3   6.02     20.0    5.78
##  4  2012    26.3   5.83     19.2    5.21
##  5  2011    25.7   5.36     18.8    4.86
##  6  2010    25.3   4.90     18.4    4.38
##  7  1985    22.8   6.21     17.7    4.70
##  8  2009    24.2   4.54     17.6    3.92
##  9  1986    22.4   5.82     17.5    4.48
## 10  1997    23.6   5.11     17.2    3.76
## # … with 22 more rows
…
